#Date,Ride,Rainfall
2015/03/1,2930,0
2015/03/2,2659,0
2015/03/3,2888,0.2
2015/03/4,3383,0.2
2015/03/5,3838,4.8
2015/03/6,3769,0.1
2015/03/7,3217,0.2
2015/03/8,2473,0
2015/03/9,2676,0
2015/03/10,2698,0
2015/03/11,3003,0.3
2015/03/12,3501,3.7
2015/03/13,3356,0.0
2015/03/14,3063,0
2015/03/15,2493,0.0
2015/03/16,2801,0
2015/03/17,2757,0.0
2015/03/18,2928,0.0
2015/03/19,2903,0.0
2015/03/20,3511,0.0
2015/03/21,3437,0.0
2015/03/22,2346,0.1
2015/03/23,2576,0
2015/03/24,2853,0.0
2015/03/25,2801,0
2015/03/26,3526,4.2
2015/03/27,4108,14.6
2015/03/28,3232,0.0
2015/03/29,2637,0.0
2015/03/30,2532,0.0
2015/03/31,2842,0
