#Date,Ride,Rainfall
2015/05/1,3408,0.5
2015/05/2,2717,0
2015/05/3,2209,0
2015/05/4,2551,0
2015/05/5,2777,3.9
2015/05/6,2711,0.6
2015/05/7,2919,0.3
2015/05/8,3559,0.0
2015/05/9,4889,7.3
2015/05/10,3703,20.1
2015/05/11,4008,51.0
2015/05/12,2553,0.0
2015/05/13,2570,0.0
2015/05/14,2769,0
2015/05/15,3348,0.0
2015/05/16,3609,18.4
2015/05/17,2192,5.7
2015/05/18,2548,0.9
2015/05/19,2897,1.2
2015/05/20,5435,107.7
2015/05/21,3187,12.6
2015/05/22,3568,0.7
2015/05/23,4258,169.4
2015/05/24,2207,8.2
2015/05/25,2391,29.4
2015/05/26,3117,64.6
2015/05/27,3025,0.2
2015/05/28,3300,1.4
2015/05/29,4011,0.0
2015/05/30,3841,7.0
2015/05/31,2412,1.9
